{
  "general": {
    "orgnization": {
      "id": "organization",
      "name": "Orgnization Name",
      "desc": " ",
      "type": "text"
    },
    "logo": {
      "id": "logo",
      "name": "Logo",
      "desc": "",
      "type": "media"
    },
    "f_name": {
      "id": "f_name",
      "name": "First Name",
      "desc": "",
	  "type": "text"
    },
    "l_name": {
      "id": "l_name",
      "name": "Last Name",
      "desc": "",
      "type": "text"
    },
    "email": {
      "id": "email",
      "name": "Email",
      "desc": "",
      "type": "text"
    },
    "mob_no": {
      "id": "mob_no",
      "name": "Mobile",
      "desc": "",
      "type": "text"
    },
    "role": {
      "id": "role",
      "name": "Role",
      "desc": "",
      "type": "text"
    },
    "profile": {
      "id": "profile",
      "name": "Profile",
      "desc": "",
      "type": "text"
    },
    "currency": {
      "id": "currency",
      "name": "Currency",
      "desc": "Select yes for display Post type",
      "type": "currency"
    },

    "address_2": {
      "id": "address_2",
      "name": "Address",
      "desc": "",
      "type": "text"
    },
    "street": {
      "id": "street",
      "name": "Street",
      "desc": "",
      "type": "text"
    },
    "postcode": {
      "id": "postcode",
      "name": "Postcode",
      "desc": "",
      "type": "text"
    },
    "city": {
      "id": "city",
      "name": "City",
      "desc": "",
      "type": "text"
    },
    "country": {
      "id": "country",
      "name": "Country",
      "desc": "",
      "type": "country"
    },
    "fax": {
      "id": "fax",
      "name": "Fax",
      "desc": "",
      "type": "text"
    },
    "date_of_birth": {
      "id": "date_of_birth",
      "name": "Date Of Birth",
      "desc": "",
      "type": "date"
    },
    "twitter": {
      "id": "twitter",
      "name": "Twitter",
      "desc": "Social Profiles",
      "type": "text"
    },
    "facebook": {
      "id": "facebook",
      "name": "Facebook",
      "desc": "Social Profiles",
      "type": "text"
    },
    "google_plus": {
      "id": "google_plus",
      "name": "Google+",
      "desc": "Social Profiles",
      "type": "text"
    },
    "timezone": {
      "id": "timezone",
      "name": "Time Zone",
      "desc": "Select yes for display Post type",
      "type": "timezone"
    },
    "language": {
      "id": "language",
      "name": "Language",
      "desc": "",
      "type": "select",
      "options": {}
    },
    "name_format": {
      "id": "name_format",
      "name": "Name Format",
      "desc": "",
      "type": "select",
      "options": {
        "s-f-l": "Salutation, First Name, Last Name",
        "s-l-f": "Salutation, Last Name, First Name",
        "f-s-l": "First Name, Salutation, Last Name",
        "f-l-s": "First Name, Last Name, Salutation",
        "l-s-f": "Last Name, Salutation, First Name",
        "l-f-s": "Last Name, First Name, Salutation"
      }
    },
    "sort_order": {
      "id": "sort_order",
      "name": "Sort Order Prefence",
      "desc": "",
      "type": "select",
      "options": {
        "f-l": "First Name, Last Name",
        "l-f": "Last Name, First Name"
      }
    }
  },
  "Email": {
    "email_id": {
      "id": "email_id",
      "name": "Email Id",
      "desc": "",
      "type": "text"
    },
    "server": {
      "id": "server",
      "name": "Server",
      "desc": "Show the Right sidebar",
      "type": "text"
    },
    "port": {
      "id": "port",
      "name": "Port",
      "desc": "",
      "type": "text"
    },
    "username": {
      "id": "username",
      "name": "usename",
      "desc": "",
      "type": "text"
    },
    "password": {
      "id": "password",
      "name": "password",
      "desc": "",
      "value": "textz",
      "type": "text"
    },
    "ssl": {
      "id": "ssl",
      "name": "SSL",
      "desc": "",
      "value": "ssl",
      "type": "checkbox"
    }
  },
    "Cron": {
      "enable_cron": {
        "id": "enable_cron",
        "name": "Enable",
        "desc": "",
        "type": "select",
        "choices":{
          "yes":"YES",
          "no":"NO"
        }
      },
      "set_time": {
        "id": "set_time",
        "name": "Set Time",
        "desc": "",
        "type": "time"
      }
    }
}
